…
pak::pak("selkamand/TCGAcatalogues")
```

## Quick Start

List available datasets with `catalogues_available()`

Load datasets with `catalogues_load('dataset')`

``` r
library(TCGAcatalogues)
# List available datasets
catalogues_available()
#> # A tibble: 198 × 4
#>    dataset source type     genome
#>    <chr>   <chr>  <chr>    <chr> 
#>  1 ACC     MC3    DBS_1248 hg19  
#>  2 ACC     MC3    DBS_78   hg19  
#>  3 ACC     MC3    ID_83    hg19  
#>  4 ACC     MC3    SBS_1536 hg19  
#>  5 ACC     MC3    SBS_6    hg19  
#>  6 ACC     MC3    SBS_96   hg19  
#>  7 BLCA    MC3    DBS_1248 hg19  
#>  8 BLCA    MC3    DBS_78   hg19  
#>  9 BLCA    MC3    ID_83    hg19  
#> 10 BLCA    MC3    SBS_1536 hg19  
#> # ℹ 188 more rows
…
